{
  "version": 1,
  "serviceConfiguration": {
    "apiName": "inevent",
    "serviceName": "AppSync",
    "gqlSchemaPath": "C:\\web\\inevent\\amplify\\backend\\api\\inevent\\schema.graphql",
    "defaultAuthType": {
      "mode": "AMAZON_COGNITO_USER_POOLS",
      "cognitoUserPoolId": "authineventae0bf37dae0bf37d"
    },
    "conflictResolution": {
      "defaultResolutionStrategy": {
        "type": "AUTOMERGE"
      }
    }
  }
}